Spot R Functions & Packages • funspotr
…
Say we only want to parse the “types-of-splits.R” and “Rmd-to-R.R” files.

preview_files %>% 
  filter(stringr::str_detect(relative_paths, "types-of-splits|Rmd-to-R")) %>% 
  spot_funs_files() %>% 
  unnest_results()
#> # A tibble: 24 x 4
#>    funs      pkgs      relative_paths      absolute_paths                       
#>    <chr>     <chr>     <chr>               <chr>                                
#>  1 purl      knitr     R/Rmd-to-R.R        https://raw.githubusercontent.com/br~
#>  2 here      here      R/Rmd-to-R.R        https://raw.githubusercontent.com/br~
#>  3 library   base      R/types-of-splits.R https://raw.githubusercontent.com/br~
#>  4 theme_set ggplot    R/types-of-splits.R https://raw.githubusercontent.com/br~
#>  5 theme_bw  ggplot    R/types-of-splits.R https://raw.githubusercontent.com/br~
#>  6 set.seed  base      R/types-of-splits.R https://raw.githubusercontent.com/br~
#>  7 tibble    dplyr     R/types-of-splits.R https://raw.githubusercontent.com/br~
#>  8 rep       base      R/types-of-splits.R https://raw.githubusercontent.com/br~
#>  9 today     lubridate R/types-of-splits.R https://raw.githubusercontent.com/br~
#> 10 days      lubridate R/types-of-splits.R https://raw.githubusercontent.com/br~
#> # ... with 14 more rows
…
