…
<!-- The example below uses `spot_pkgs_from_DESCRIPTION()` to load in package dependencies and then passes the resulting character vector to `spot_funs_custom()`. -->

For example, let’s check which functions go into creating the functions
written in one of the R files in `{funspotr}`:

``` r
funspotr_deps <- spot_pkgs_from_DESCRIPTION("https://raw.githubusercontent.com/brshallo/funspotr/main/DESCRIPTION")

# using dplyr::filter() to remove functions created in {funspotr}
spot_funs_custom(
  pkgs = funspotr_deps,
  file_path = "https://raw.githubusercontent.com/brshallo/funspotr/main/R/spot-funs.R"
  ) %>% 
  dplyr::filter(pkgs != "(unknown)")
#> # A tibble: 30 x 3
#>    funs      pkgs   in_multiple_pkgs
#>    <chr>     <chr>  <lgl>           
#>  1 tibble    tibble TRUE            
#>  2 tibble    tidyr  TRUE            
#>  3 tibble    dplyr  TRUE            
#>  4 all       base   FALSE           
#>  5 c         base   FALSE           
#>  6 character base   FALSE           
#>  7 ifelse    base   FALSE           
#>  8 lapply    base   FALSE           
#>  9 list      base   FALSE           
#> 10 logical   base   FALSE           
#> # ... with 20 more rows
```
…
These results may then be unnested to provide a table of which functions
and packages are used in each file.

``` r
gh_ex %>% 
  dplyr::relocate(spotted) %>% 
  tidyr::unnest(spotted) %>% 
  dplyr::arrange(pkgs, contents)
#> # A tibble: 128 x 5
#>    funs               pkgs      in_multiple_pkgs contents                  urls 
#>    <chr>              <chr>     <lgl>            <chr>                     <chr>
#>  1 extract_dates_rset (unknown) FALSE            R/feat-engineering-lags.R http~
#>  2 plot_dates_rset    (unknown) FALSE            R/feat-engineering-lags.R http~
#>  3 where              (unknown) FALSE            R/feat-engineering-lags.R http~
#>  4 c                  base      FALSE            R/feat-engineering-lags.R http~
#>  5 getOption          base      FALSE            R/feat-engineering-lags.R http~
#>  6 is.na              base      FALSE            R/feat-engineering-lags.R http~
#>  7 library            base      FALSE            R/feat-engineering-lags.R http~
#>  8 list               base      FALSE            R/feat-engineering-lags.R http~
#>  9 max                base      FALSE            R/feat-engineering-lags.R http~
#> 10 options            base      FALSE            R/feat-engineering-lags.R http~
#> # ... with 118 more rows
```
…
