List Files in Github Repo — list_files_github_repo • funspotr
…
    Examples

# \donttest{
library(dplyr)
library(funspotr)

# pulling and analyzing my R file github gists
gh_urls <- list_files_github_repo("brshallo/feat-eng-lags-presentation", branch = "main")

# Will just parse the first 2 files/gists
contents <- spot_funs_files(slice(gh_urls, 1:2))

contents %>%
  unnest_results()
#> # A tibble: 75 × 4
#>    funs            pkgs      relative_paths            absolute_paths           
#>    <chr>           <chr>     <chr>                     <chr>                    
#>  1 purl            knitr     R/Rmd-to-R.R              https://raw.githubuserco…
#>  2 here            here      R/Rmd-to-R.R              https://raw.githubuserco…
#>  3 getOption       base      R/feat-engineering-lags.R https://raw.githubuserco…
#>  4 options         base      R/feat-engineering-lags.R https://raw.githubuserco…
#>  5 library         base      R/feat-engineering-lags.R https://raw.githubuserco…
#>  6 read_csv        (unknown) R/feat-engineering-lags.R https://raw.githubuserco…
#>  7 arrange         (unknown) R/feat-engineering-lags.R https://raw.githubuserco…
#>  8 mutate          (unknown) R/feat-engineering-lags.R https://raw.githubuserco…
#>  9 slide_index_dbl (unknown) R/feat-engineering-lags.R https://raw.githubuserco…
#> 10 days            (unknown) R/feat-engineering-lags.R https://raw.githubuserco…
#> # ℹ 65 more rows
…
