…
# pulling and analyzing my R file github gists
gists_urls <- list_files_github_gists("brshallo", pattern = ".")

# Will just parse the first 2 files/gists
# Note that is easy to hit the API limit if have lots of gists
contents <- filter(gists_urls, str_detect_r_docs(absolute_paths)) %>%
  slice(1:2) %>%
  spot_funs_files()


contents %>%
  unnest_results()
#> # A tibble: 29 × 4
#>    funs      pkgs      relative_paths                  absolute_paths           
#>    <chr>     <chr>     <chr>                           <chr>                    
#>  1 library   base      find_in_files.R                 https://gist.githubuserc…
#>  2 dir_ls    fs        find_in_files.R                 https://gist.githubuserc…
#>  3 map       purrr     find_in_files.R                 https://gist.githubuserc…
#>  4 grep      base      find_in_files.R                 https://gist.githubuserc…
#>  5 readLines base      find_in_files.R                 https://gist.githubuserc…
#>  6 keep      purrr     find_in_files.R                 https://gist.githubuserc…
#>  7 length    base      find_in_files.R                 https://gist.githubuserc…
#>  8 library   base      rolling-mean-conditioned-date.R https://gist.githubuserc…
#>  9 seq       base      rolling-mean-conditioned-date.R https://gist.githubuserc…
#> 10 map       (unknown) rolling-mean-conditioned-date.R https://gist.githubuserc…
#> # ℹ 19 more rows
…
